Chaotic Circuits - Physics Lab/data_17-02-2022/CSV72.6.csv

Record Length,Analog:14000
Sample Interval,CH:0.0005000000237
Vertical Units,CH1:V CH2:V,,,
Vertical Scale,CH1:+5.000000E+00 CH2:+1.000000E-02,,,
Vertical Offset,CH1:+0.000000E+00 CH2:-1.880000E-02,,,
Horizontal Units,us,,,
Horizontal Scale,500000.0000000000,,,
Model Number,SDS2352X-E,,,
Serial Number,SDS2ECCX5R0313,,,
Software Version,2.1.1.1.20 R3,,,
Source,CH1,CH2
Second,Volt,Volt
-3.500000E+00,+0.000000E+00,+7.600000E-03
-3.499500E+00,+0.000000E+00,+7.600000E-03
-3.499000E+00,-2.000000E-01,+7.600000E-03
-3.498500E+00,-2.000000E-01,+8.000000E-03
-3.498000E+00,+0.000000E+00,+7.600000E-03
-3.497500E+00,-2.000000E-01,+7.600000E-03
-3.497000E+00,-2.000000E-01,+7.600000E-03
-3.496500E+00,-2.000000E-01,+7.600000E-03
-3.496000E+00,-2.000000E-01,+8.000000E-03
-3.495500E+00,-2.000000E-01,+7.600000E-03
-3.495000E+00,+0.000000E+00,+7.600000E-03
-3.494500E+00,+0.000000E+00,+7.600000E-03
-3.494000E+00,+0.000000E+00,+8.000000E-03
-3.493500E+00,+0.000000E+00,+7.600000E-03
-3.493000E+00,+0.000000E+00,+8.000000E-03
-3.492500E+00,+0.000000E+00,+8.400000E-03
-3.492000E+00,+0.000000E+00,+8.400000E-03
-3.491500E+00,+0.000000E+00,+8.800000E-03
-3.491000E+00,+0.000000E+00,+8.800000E-03
-3.490500E+00,+0.000000E+00,+8.000000E-03
-3.490000E+00,+0.000000E+00,+8.000000E-03
-3.489500E+00,+0.000000E+00,+8.800000E-03
-3.489000E+00,+0.000000E+00,+8.800000E-03
-3.488500E+00,+0.000000E+00,+8.800000E-03
-3.488000E+00,+0.000000E+00,+8.800000E-03
-3.487500E+00,-2.000000E-01,+8.800000E-03
-3.487000E+00,-2.000000E-01,+8.800000E-03
-3.486500E+00,+0.000000E+00,+8.800000E-03
-3.486000E+00,+0.000000E+00,+8.800000E-03
-3.485500E+00,-2.000000E-01,+8.800000E-03
-3.485000E+00,-2.000000E-01,+8.800000E-03
-3.484500E+00,+0.000000E+00,+8.800000E-03
-3.484000E+00,+0.000000E+00,+8.800000E-03
-3.483500E+00,+0.000000E+00,+9.200000E-03
-3.483000E+00,+0.000000E+00,+9.200000E-03
-3.482500E+00,+0.000000E+00,+8.800000E-03
-3.482000E+00,+0.000000E+00,+9.200000E-03
-3.481500E+00,+0.000000E+00,+9.200000E-03
-3.481000E+00,+0.000000E+00,+9.200000E-03
-3.480500E+00,+0.000000E+00,+9.200000E-03
-3.480000E+00,+0.000000E+00,+8.800000E-03
-3.479500E+00,+0.000000E+00,+9.200000E-03
-3.479000E+00,-2.000000E-01,+9.200000E-03
-3.478500E+00,+0.000000E+00,+9.200000E-03
-3.478000E+00,+0.000000E+00,+9.200000E-03
-3.477500E+00,+0.000000E+00,+9.200000E-03
-3.477000E+00,+0.000000E+00,+9.200000E-03
-3.476500E+00,+0.000000E+00,+9.200000E-03
-3.476000E+00,+0.000000E+00,+9.200000E-03
-3.475500E+00,+0.000000E+00,+9.200000E-03
-3.475000E+00,+0.000000E+00,+9.200000E-03
-3.474500E+00,+0.000000E+00,+9.200000E-03
-3.474000E+00,+0.000000E+00,+9.200000E-03
-3.473500E+00,+0.000000E+00,+9.200000E-03
-3.473000E+00,+0.000000E+00,+9.200000E-03
-3.472500E+00,+0.000000E+00,+9.200000E-03
-3.472000E+00,+0.000000E+00,+9.200000E-03
-3.471500E+00,+0.000000E+00,+9.200000E-03
-3.471000E+00,+2.000000E-01,+9.200000E-03
-3.470500E+00,+2.000000E-01,+9.200000E-03
-3.470000E+00,+0.000000E+00,+9.600000E-03
-3.469500E+00,+0.000000E+00,+9.200000E-03
-3.469000E+00,+0.000000E+00,+9.200000E-03
-3.468500E+00,+0.000000E+00,+9.200000E-03
-3.468000E+00,+0.000000E+00,+9.200000E-03
-3.467500E+00,+0.000000E+00,+9.200000E-03
-3.467000E+00,+0.000000E+00,+8.800000E-03
-3.466500E+00,+0.000000E+00,+8.800000E-03
-3.466000E+00,+0.000000E+00,+9.200000E-03
-3.465500E+00,+0.000000E+00,+9.600000E-03
-3.465000E+00,+0.000000E+00,+9.200000E-03
-3.464500E+00,+0.000000E+00,+9.200000E-03
-3.464000E+00,+0.000000E+00,+8.800000E-03
-3.463500E+00,+0.000000E+00,+9.200000E-03
-3.463000E+00,+0.000000E+00,+9.600000E-03
-3.462500E+00,+0.000000E+00,+8.800000E-03
-3.462000E+00,+0.000000E+00,+9.200000E-03
-3.461500E+00,+0.000000E+00,+9.200000E-03
-3.461000E+00,+0.000000E+00,+8.800000E-03
-3.460500E+00,+0.000000E+00,+8.800000E-03
-3.460000E+00,+0.000000E+00,+9.200000E-03
-3.459500E+00,+0.000000E+00,+8.800000E-03
-3.459000E+00,+0.000000E+00,+9.200000E-03
-3.458500E+00,+0.000000E+00,+9.200000E-03
-3.458000E+00,+0.000000E+00,+9.200000E-03
-3.457500E+00,+0.000000E+00,+8.800000E-03
-3.457000E+00,+0.000000E+00,+8.400000E-03
-3.456500E+00,+0.000000E+00,+8.800000E-03
-3.456000E+00,+0.000000E+00,+8.800000E-03
-3.455500E+00,+0.000000E+00,+8.400000E-03
-3.455000E+00,+0.000000E+00,+8.000000E-03
-3.454500E+00,+0.000000E+00,+8.400000E-03
-3.454000E+00,+0.000000E+00,+8.400000E-03
-3.453500E+00,+0.000000E+00,+8.400000E-03
-3.453000E+00,+0.000000E+00,+8.400000E-03
-3.452500E+00,+0.000000E+00,+8.400000E-03
-3.452000E+00,+0.000000E+00,+8.400000E-03
-3.451500E+00,+0.000000E+00,+8.000000E-03
-3.451000E+00,+0.000000E+00,+7.600000E-03
-3.450500E+00,+0.000000E+00,+8.000000E-03
-3.450000E+00,+0.000000E+00,+8.400000E-03
-3.449500E+00,+0.000000E+00,+8.400000E-03
-3.449000E+00,+0.000000E+00,+8.000000E-03
-3.448500E+00,+0.000000E+00,+8.000000E-03
-3.448000E+00,+0.000000E+00,+8.000000E-03
-3.447500E+00,+0.000000E+00,+7.200000E-03
-3.447000E+00,+0.000000E+00,+7.200000E-03
-3.446500E+00,+0.000000E+00,+7.600000E-03
-3.446000E+00,+0.000000E+00,+7.600000E-03
-3.445500E+00,+0.000000E+00,+7.200000E-03
-3.445000E+00,+0.000000E+00,+7.200000E-03
-3.444500E+00,+0.000000E+00,+7.200000E-03
-3.444000E+00,+2.000000E-01,+7.200000E-03
-3.443500E+00,+0.000000E+00,+7.200000E-03
-3.443000E+00,+0.000000E+00,+7.200000E-03
-3.442500E+00,+0.000000E+00,+7.200000E-03
-3.442000E+00,+0.000000E+00,+7.200000E-03
-3.441500E+00,+0.000000E+00,+6.800000E-03
-3.441000E+00,+0.000000E+00,+6.400000E-03
-3.440500E+00,+0.000000E+00,+6.400000E-03
-3.440000E+00,+0.000000E+00,+6.400000E-03
-3.439500E+00,+0.000000E+00,+6.400000E-03
-3.439000E+00,+0.000000E+00,+6.800000E-03
-3.438500E+00,+0.000000E+00,+6.400000E-03
-3.438000E+00,+0.000000E+00,+6.000000E-03
-3.437500E+00,+0.000000E+00,+6.000000E-03
-3.437000E+00,+0.000000E+00,+6.000000E-03
-3.436500E+00,+0.000000E+00,+6.000000E-03
-3.436000E+00,-2.000000E-01,+5.600000E-03
-3.435500E+00,+0.000000E+00,+6.000000E-03
-3.435000E+00,+0.000000E+00,+6.000000E-03
-3.434500E+00,+0.000000E+00,+6.000000E-03
-3.434000E+00,+0.000000E+00,+5.600000E-03
-3.433500E+00,+0.000000E+00,+5.200000E-03
-3.433000E+00,+0.000000E+00,+5.200000E-03
-3.432500E+00,+0.000000E+00,+5.200000E-03
-3.432000E+00,+0.000000E+00,+5.200000E-03
-3.431500E+00,+0.000000E+00,+4.800000E-03
-3.431000E+00,+0.000000E+00,+4.800000E-03
-3.430500E+00,+0.000000E+00,+4.800000E-03
-3.430000E+00,+0.000000E+00,+4.800000E-03
-3.429500E+00,+0.000000E+00,+4.800000E-03
-3.429000E+00,+0.000000E+00,+4.400000E-03
-3.428500E+00,+0.000000E+00,+4.400000E-03
-3.428000E+00,+0.000000E+00,+4.800000E-03
-3.427500E+00,+0.000000E+00,+4.400000E-03
-3.427000E+00,+0.000000E+00,+4.400000E-03
-3.426500E+00,+2.000000E-01,+4.400000E-03
-3.426000E+00,+0.000000E+00,+4.400000E-03
-3.425500E+00,+0.000000E+00,+4.000000E-03
-3.425000E+00,+0.000000E+00,+4.000000E-03
-3.424500E+00,+2.000000E-01,+3.600000E-03
-3.424000E+00,+0.000000E+00,+3.200000E-03
-3.423500E+00,+0.000000E+00,+3.200000E-03
-3.423000E+00,+0.000000E+00,+3.200000E-03
-3.422500E+00,+0.000000E+00,+2.800001E-03
-3.422000E+00,+0.000000E+00,+2.800001E-03
-3.421500E+00,+0.000000E+00,+3.200000E-03
-3.421000E+00,+0.000000E+00,+2.800001E-03
-3.420500E+00,+0.000000E+00,+2.800001E-03
-3.420000E+00,+0.000000E+00,+2.800001E-03
-3.419500E+00,+0.000000E+00,+2.400000E-03
-3.419000E+00,+0.000000E+00,+2.400000E-03
-3.418500E+00,+0.000000E+00,+2.400000E-03
-3.418000E+00,+0.000000E+00,+2.000000E-03
-3.417500E+00,+0.000000E+00,+2.000000E-03
-3.417000E+00,+0.000000E+00,+1.600001E-03
-3.416500E+00,+0.000000E+00,+1.600001E-03
-3.416000E+00,+0.000000E+00,+1.600001E-03
-3.415500E+00,+0.000000E+00,+1.200000E-03
-3.415000E+00,+0.000000E+00,+1.200000E-03
-3.414500E+00,+0.000000E+00,+8.000005E-04
-3.414000E+00,+0.000000E+00,+8.000005E-04
-3.413500E+00,+2.000000E-01,+8.000005E-04
-3.413000E+00,+0.000000E+00,+8.000005E-04
-3.412500E+00,+0.000000E+00,+8.000005E-04
-3.412000E+00,+2.000000E-01,+3.999993E-04
-3.411500E+00,+2.000000E-01,+3.999993E-04
-3.411000E+00,+0.000000E+00,+3.999993E-04
-3.410500E+00,+0.000000E+00,+3.999993E-04
-3.410000E+00,+0.000000E+00,+0.000000E+00
-3.409500E+00,+0.000000E+00,-3.999993E-04
-3.409000E+00,+2.000000E-01,-3.999993E-04
-3.408500E+00,+0.000000E+00,-3.999993E-04
-3.408000E+00,+0.000000E+00,-3.999993E-04
-3.407500E+00,+0.000000E+00,-3.999993E-04
-3.407000E+00,+0.000000E+00,-8.000005E-04
-3.406500E+00,+0.000000E+00,-8.000005E-04
-3.406000E+00,+0.000000E+00,-8.000005E-04
-3.405500E+00,+0.000000E+00,-1.200000E-03
-3.405000E+00,+0.000000E+00,-1.200000E-03
-3.404500E+00,+0.000000E+00,-1.200000E-03
-3.404000E+00,+0.000000E+00,-1.599999E-03
-3.403500E+00,+0.000000E+00,-1.599999E-03
-3.403000E+00,+0.000000E+00,-1.599999E-03
-3.402500E+00,+0.000000E+00,-2.000000E-03
-3.402000E+00,+0.000000E+00,-1.599999E-03
-3.401500E+00,+0.000000E+00,-2.000000E-03
-3.401000E+00,+0.000000E+00,-2.400000E-03
-3.400500E+00,+0.000000E+00,-2.000000E-03
-3.400000E+00,+0.000000E+00,-2.400000E-03
-3.399500E+00,+0.000000E+00,-2.400000E-03
-3.399000E+00,+0.000000E+00,-2.400000E-03
-3.398500E+00,+0.000000E+00,-2.799999E-03
-3.398000E+00,+0.000000E+00,-2.799999E-03
-3.397500E+00,+0.000000E+00,-3.200000E-03
-3.397000E+00,+0.000000E+00,-3.200000E-03
-3.396500E+00,+0.000000E+00,-3.599999E-03
-3.396000E+00,+0.000000E+00,-3.599999E-03
-3.395500E+00,+0.000000E+00,-3.599999E-03
-3.395000E+00,+0.000000E+00,-3.599999E-03
-3.394500E+00,+0.000000E+00,-3.599999E-03
-3.394000E+00,+2.000000E-01,-3.999999E-03
-3.393500E+00,+0.000000E+00,-4.400000E-03
-3.393000E+00,+0.000000E+00,-4.799999E-03
-3.392500E+00,+0.000000E+00,-4.400000E-03
-3.392000E+00,+0.000000E+00,-4.799999E-03
-3.391500E+00,+0.000000E+00,-4.799999E-03
-3.391000E+00,+0.000000E+00,-4.400000E-03
-3.390500E+00,+0.000000E+00,-4.799999E-03
-3.390000E+00,+0.000000E+00,-5.200000E-03
-3.389500E+00,+0.000000E+00,-5.600000E-03
-3.389000E+00,+2.000000E-01,-5.600000E-03
-3.388500E+00,+2.000000E-01,-5.600000E-03
-3.388000E+00,+0.000000E+00,-5.600000E-03
-3.387500E+00,+0.000000E+00,-5.999999E-03
-3.387000E+00,+0.000000E+00,-5.999999E-03
-3.386500E+00,+0.000000E+00,-5.999999E-03
-3.386000E+00,+0.000000E+00,-6.400000E-03
-3.385500E+00,+0.000000E+00,-6.400000E-03
-3.385000E+00,+0.000000E+00,-6.400000E-03
-3.384500E+00,+0.000000E+00,-6.400000E-03
-3.384000E+00,+0.000000E+00,-6.800000E-03
-3.383500E+00,+0.000000E+00,-6.800000E-03
-3.383000E+00,+0.000000E+00,-6.800000E-03
-3.382500E+00,+0.000000E+00,-7.199999E-03
-3.382000E+00,+0.000000E+00,-7.600000E-03
-3.381500E+00,+0.000000E+00,-7.199999E-03
-3.381000E+00,+0.000000E+00,-7.199999E-03
-3.380500E+00,+0.000000E+00,-7.600000E-03
-3.380000E+00,+0.000000E+00,-7.600000E-03
-3.379500E+00,+0.000000E+00,-7.600000E-03
-3.379000E+00,+0.000000E+00,-7.600000E-03
-3.378500E+00,+0.000000E+00,-7.999999E-03
-3.378000E+00,+0.000000E+00,-7.999999E-03
-3.377500E+00,+0.000000E+00,-7.999999E-03
-3.377000E+00,+0.000000E+00,-7.999999E-03
-3.376500E+00,+0.000000E+00,-8.399999E-03
-3.376000E+00,+0.000000E+00,-8.399999E-03
-3.375500E+00,+0.000000E+00,-8.399999E-03
-3.375000E+00,+2.000000E-01,-8.399999E-03
-3.374500E+00,+0.000000E+00,-8.800000E-03
-3.374000E+00,+0.000000E+00,-8.800000E-03
-3.373500E+00,+0.000000E+00,-8.800000E-03
-3.373000E+00,+2.000000E-01,-8.800000E-03
-3.372500E+00,+0.000000E+00,-8.399999E-03
-3.372000E+00,+0.000000E+00,-8.800000E-03
-3.371500E+00,+0.000000E+00,-8.800000E-03
-3.371000E+00,+0.000000E+00,-9.199999E-03
-3.370500E+00,+0.000000E+00,-9.199999E-03
-3.370000E+00,+0.000000E+00,-9.199999E-03
-3.369500E+00,+0.000000E+00,-9.199999E-03
-3.369000E+00,+0.000000E+00,-8.800000E-03
-3.368500E+00,+0.000000E+00,-9.199999E-03
-3.368000E+00,+0.000000E+00,-9.199999E-03
-3.367500E+00,+0.000000E+00,-9.199999E-03
-3.367000E+00,+0.000000E+00,-9.600000E-03
-3.366500E+00,+0.000000E+00,-9.600000E-03
-3.366000E+00,+0.000000E+00,-9.600000E-03
-3.365500E+00,+0.000000E+00,-9.600000E-03
-3.365000E+00,+0.000000E+00,-9.600000E-03
-3.364500E+00,+0.000000E+00,-9.600000E-03
-3.364000E+00,+0.000000E+00,-9.600000E-03
-3.363500E+00,+0.000000E+00,-9.600000E-03
-3.363000E+00,+0.000000E+00,-9.600000E-03
-3.362500E+00,+0.000000E+00,-9.600000E-03
-3.362000E+00,+0.000000E+00,-9.600000E-03
-3.361500E+00,+0.000000E+00,-9.600000E-03
-3.361000E+00,+0.000000E+00,-9.600000E-03
-3.360500E+00,+0.000000E+00,-9.600000E-03
-3.360000E+00,+0.000000E+00,-9.199999E-03
-3.359500E+00,+0.000000E+00,-9.199999E-03
-3.359000E+00,+0.000000E+00,-9.199999E-03
-3.358500E+00,+0.000000E+00,-9.199999E-03
-3.358000E+00,+0.000000E+00,-8.800000E-03
-3.357500E+00,+0.000000E+00,-8.800000E-03
-3.357000E+00,+0.000000E+00,-9.199999E-03
-3.356500E+00,+0.000000E+00,-9.600000E-03
-3.356000E+00,+0.000000E+00,-9.600000E-03
-3.355500E+00,+0.000000E+00,-9.199999E-03
-3.355000E+00,+0.000000E+00,-8.800000E-03
-3.354500E+00,-2.000000E-01,-8.800000E-03
-3.354000E+00,-2.000000E-01,-8.800000E-03
-3.353500E+00,+0.000000E+00,-8.800000E-03
-3.353000E+00,+0.000000E+00,-8.800000E-03
-3.352500E+00,+0.000000E+00,-8.800000E-03
-3.352000E+00,-2.000000E-01,-8.800000E-03
-3.351500E+00,-2.000000E-01,-8.800000E-03
-3.351000E+00,+0.000000E+00,-8.800000E-03
-3.350500E+00,+0.000000E+00,-8.800000E-03
-3.350000E+00,+0.000000E+00,-8.399999E-03
-3.349500E+00,-2.000000E-01,-8.399999E-03
-3.349000E+00,-2.000000E-01,-7.999999E-03
-3.348500E+00,+0.000000E+00,-7.600000E-03
-3.348000E+00,-2.000000E-01,-7.999999E-03
-3.347500E+00,-2.000000E-01,-7.999999E-03
-3.347000E+00,-2.000000E-01,-7.600000E-03
-3.346500E+00,-2.000000E-01,-7.600000E-03
-3.346000E+00,-2.000000E-01,-7.600000E-03
-3.345500E+00,-2.000000E-01,-7.600000E-03
-3.345000E+00,-2.000000E-01,-6.800000E-03
-3.344500E+00,-2.000000E-01,-6.800000E-03
-3.344000E+00,-2.000000E-01,-6.800000E-03
-3.343500E+00,-2.000000E-01,-6.400000E-03
-3.343000E+00,-2.000000E-01,-6.400000E-03
-3.342500E+00,-2.000000E-01,-5.999999E-03
-3.342000E+00,-2.000000E-01,-5.600000E-03
-3.341500E+00,-2.000000E-01,-5.200000E-03
-3.341000E+00,-2.000000E-01,-4.799999E-03
-3.340500E+00,-2.000000E-01,-5.200000E-03
-3.340000E+00,-2.000000E-01,-5.200000E-03
-3.339500E+00,-2.000000E-01,-4.799999E-03
-3.339000E+00,-2.000000E-01,-4.799999E-03
-3.338500E+00,-2.000000E-01,-4.799999E-03
-3.338000E+00,-2.000000E-01,-4.400000E-03
-3.337500E+00,-2.000000E-01,-3.999999E-03
-3.337000E+00,-2.000000E-01,-3.599999E-03
-3.336500E+00,-2.000000E-01,-3.599999E-03
-3.336000E+00,-2.000000E-01,-3.599999E-03
-3.335500E+00,-2.000000E-01,-3.200000E-03
-3.335000E+00,-2.000000E-01,-2.799999E-03
-3.334500E+00,-2.000000E-01,-2.400000E-03
-3.334000E+00,-2.000000E-01,-2.000000E-03
-3.333500E+00,-2.000000E-01,-2.000000E-03
-3.333000E+00,-2.000000E-01,-2.000000E-03
-3.332500E+00,-2.000000E-01,-2.000000E-03
-3.332000E+00,-2.000000E-01,-1.599999E-03
-3.331500E+00,-2.000000E-01,-1.200000E-03
-3.331000E+00,-2.000000E-01,-8.000005E-04
-3.330500E+00,-2.000000E-01,-3.999993E-04
-3.330000E+00,-2.000000E-01,-3.999993E-04
-3.329500E+00,-2.000000E-01,-3.999993E-04
-3.329000E+00,-4.000000E-01,+3.999993E-04
-3.328500E+00,-4.000000E-01,+8.000005E-04
-3.328000E+00,-2.000000E-01,+8.000005E-04
-3.327500E+00,+0.000000E+00,+1.200000E-03
-3.327000E+00,-2.000000E-01,+1.600001E-03
-3.326500E+00,-2.000000E-01,+2.000000E-03
-3.326000E+00,-2.000000E-01,+2.000000E-03
-3.325500E+00,-2.000000E-01,+2.400000E-03
-3.325000E+00,-2.000000E-01,+2.800001E-03
-3.324500E+00,-2.000000E-01,+3.200000E-03
-3.324000E+00,-2.000000E-01,+3.600000E-03
-3.323500E+00,-2.000000E-01,+4.000000E-03
-3.323000E+00,-2.000000E-01,+4.000000E-03
-3.322500E+00,-4.000000E-01,+4.400000E-03
-3.322000E+00,-4.000000E-01,+4.800000E-03
-3.321500E+00,-2.000000E-01,+4.800000E-03
-3.321000E+00,-4.000000E-01,+5.200000E-03
-3.320500E+00,-4.000000E-01,+5.600000E-03
-3.320000E+00,-2.000000E-01,+6.000000E-03
-3.319500E+00,-2.000000E-01,+6.000000E-03
-3.319000E+00,-2.000000E-01,+6.800000E-03
-3.318500E+00,-4.000000E-01,+7.200000E-03
-3.318000E+00,-4.000000E-01,+7.200000E-03
-3.317500E+00,-4.000000E-01,+7.600000E-03
-3.317000E+00,-4.000000E-01,+8.000000E-03
-3.316500E+00,-4.000000E-01,+8.000000E-03
-3.316000E+00,-4.000000E-01,+8.800000E-03
-3.315500E+00,-4.000000E-01,+9.200000E-03
-3.315000E+00,-4.000000E-01,+9.600000E-03
-3.314500E+00,-4.000000E-01,+9.600000E-03
-3.314000E+00,-4.000000E-01,+1.040000E-02
-3.313500E+00,-4.000000E-01,+1.080000E-02
-3.313000E+00,-2.000000E-01,+1.120000E-02
-3.312500E+00,-2.000000E-01,+1.160000E-02
-3.312000E+00,-4.000000E-01,+1.160000E-02
-3.311500E+00,-2.000000E-01,+1.160000E-02
-3.311000E+00,-2.000000E-01,+1.200000E-02
-3.310500E+00,-4.000000E-01,+1.280000E-02
-3.310000E+00,-4.000000E-01,+1.320000E-02
-3.309500E+00,-4.000000E-01,+1.320000E-02
-3.309000E+00,-4.000000E-01,+1.360000E-02
-3.308500E+00,-4.000000E-01,+1.400000E-02
-3.308000E+00,-4.000000E-01,+1.440000E-02
-3.307500E+00,-4.000000E-01,+1.520000E-02
-3.307000E+00,-4.000000E-01,+1.560000E-02
-3.306500E+00,-4.000000E-01,+1.600000E-02
-3.306000E+00,-4.000000E-01,+1.600000E-02
-3.305500E+00,-4.000000E-01,+1.640000E-02
-3.305000E+00,-4.000000E-01,+1.720000E-02
-3.304500E+00,-4.000000E-01,+1.720000E-02
-3.304000E+00,-4.000000E-01,+1.720000E-02
-3.303500E+00,-4.000000E-01,+1.760000E-02
-3.303000E+00,-4.000000E-01,+1.800000E-02
-3.302500E+00,-4.000000E-01,+1.840000E-02
-3.302000E+00,-4.000000E-01,+1.880000E-02
-3.301500E+00,-4.000000E-01,+1.920000E-02
-3.301000E+00,-2.000000E-01,+1.960000E-02
-3.300500E+00,-4.000000E-01,+2.000000E-02
-3.300000E+00,-4.000000E-01,+2.000000E-02
-3.299500E+00,-4.000000E-01,+2.040000E-02
-3.299000E+00,-2.000000E-01,+2.080000E-02
-3.298500E+00,-2.000000E-01,+2.120000E-02
-3.298000E+00,-4.000000E-01,+2.160000E-02
-3.297500E+00,-4.000000E-01,+2.200000E-02
-3.297000E+00,-4.000000E-01,+2.240000E-02
-3.296500E+00,-4.000000E-01,+2.280000E-02
-3.296000E+00,-4.000000E-01,+2.320000E-02
-3.295500E+00,-4.000000E-01,+2.360000E-02
-3.295000E+00,-4.000000E-01,+2.440000E-02
-3.294500E+00,-4.000000E-01,+2.480000E-02
-3.294000E+00,-2.000000E-01,+2.480000E-02
-3.293500E+00,-4.000000E-01,+2.480000E-02
-3.293000E+00,-4.000000E-01,+2.520000E-02
-3.292500E+00,-2.000000E-01,+2.600000E-02
-3.292000E+00,-4.000000E-01,+2.600000E-02
-3.291500E+00,-4.000000E-01,+2.600000E-02
-3.291000E+00,-4.000000E-01,+2.640000E-02
-3.290500E+00,-4.000000E-01,+2.680000E-02
-3.290000E+00,-2.000000E-01,+2.720000E-02
-3.289500E+00,-2.000000E-01,+2.760000E-02
-3.289000E+00,-2.000000E-01,+2.800000E-02
-3.288500E+00,-4.000000E-01,+2.800000E-02
-3.288000E+00,-4.000000E-01,+2.840000E-02
-3.287500E+00,-4.000000E-01,+2.920000E-02
-3.287000E+00,-2.000000E-01,+2.960000E-02
-3.286500E+00,-2.000000E-01,+3.000000E-02
-3.286000E+00,-2.000000E-01,+3.000000E-02
-3.285500E+00,-2.000000E-01,+3.080000E-02
-3.285000E+00,-2.000000E-01,+3.120000E-02
-3.284500E+00,-2.000000E-01,+3.120000E-02
-3.284000E+00,-2.000000E-01,+3.160000E-02
-3.283500E+00,-2.000000E-01,+3.200000E-02
-3.283000E+00,-2.000000E-01,+3.240000E-02
-3.282500E+00,-4.000000E-01,+3.240000E-02
-3.282000E+00,-4.000000E-01,+3.240000E-02
-3.281500E+00,-2.000000E-01,+3.320000E-02
-3.281000E+00,-2.000000E-01,+3.360000E-02
-3.280500E+00,-2.000000E-01,+3.360000E-02
-3.280000E+00,-2.000000E-01,+3.400000E-02
-3.279500E+00,-2.000000E-01,+3.400000E-02
-3.279000E+00,-2.000000E-01,+3.440000E-02
-3.278500E+00,-2.000000E-01,+3.480000E-02
-3.278000E+00,-2.000000E-01,+3.520000E-02
-3.277500E+00,-2.000000E-01,+3.560000E-02
-3.277000E+00,-2.000000E-01,+3.560000E-02
-3.276500E+00,-2.000000E-01,+3.600000E-02
-3.276000E+00,-2.000000E-01,+3.600000E-02
-3.275500E+00,-2.000000E-01,+3.640000E-02
-3.275000E+00,-2.000000E-01,+3.680000E-02
-3.274500E+00,-2.000000E-01,+3.680000E-02
-3.274000E+00,-2.000000E-01,+3.720000E-02
-3.273500E+00,-4.000000E-01,+3.760000E-02
-3.273000E+00,-4.000000E-01,+3.760000E-02
-3.272500E+00,-2.000000E-01,+3.760000E-02
-3.272000E+00,-2.000000E-01,+3.800000E-02
-3.271500E+00,-2.000000E-01,+3.840000E-02
-3.271000E+00,-2.000000E-01,+3.920000E-02
-3.270500E+00,-2.000000E-01,+3.920000E-02
-3.270000E+00,-2.000000E-01,+3.920000E-02
-3.269500E+00,-2.000000E-01,+3.960000E-02
-3.269000E+00,-2.000000E-01,+4.000000E-02
-3.268500E+00,-2.000000E-01,+4.040000E-02
-3.268000E+00,-2.000000E-01,+4.040000E-02
-3.267500E+00,-2.000000E-01,+4.080000E-02
