Chaotic Circuits - Physics Lab/data_17-02-2022/CSV70.csv

Record Length,Analog:14000
Sample Interval,CH:0.0001999999949
Vertical Units,CH1:V CH2:V,,,
Vertical Scale,CH1:+2.000000E-01 CH2:+2.000000E-02,,,
Vertical Offset,CH1:+0.000000E+00 CH2:+0.000000E+00,,,
Horizontal Units,us,,,
Horizontal Scale,200000.0000000000,,,
Model Number,SDS2352X-E,,,
Serial Number,SDS2ECCX5R0313,,,
Software Version,2.1.1.1.20 R3,,,
Source,CH1,CH2
Second,Volt,Volt
-1.400000E+00,-8.000000E-03,+8.800000E-03
-1.399800E+00,-8.000000E-03,+8.800000E-03
-1.399600E+00,-8.000000E-03,+8.800000E-03
-1.399400E+00,-8.000000E-03,+8.800000E-03
-1.399200E+00,-8.000000E-03,+9.600000E-03
-1.399000E+00,-8.000000E-03,+9.600000E-03
-1.398800E+00,-8.000000E-03,+9.600000E-03
-1.398600E+00,+0.000000E+00,+8.800000E-03
-1.398400E+00,+0.000000E+00,+8.800000E-03
-1.398200E+00,+0.000000E+00,+9.600000E-03
-1.398000E+00,+0.000000E+00,+9.600000E-03
-1.397800E+00,-8.000000E-03,+8.800000E-03
-1.397600E+00,-8.000000E-03,+8.800000E-03
-1.397400E+00,+0.000000E+00,+9.600000E-03
-1.397200E+00,+0.000000E+00,+9.600000E-03
-1.397000E+00,+0.000000E+00,+9.600000E-03
-1.396800E+00,+0.000000E+00,+8.800000E-03
-1.396600E+00,+0.000000E+00,+8.800000E-03
-1.396400E+00,+0.000000E+00,+8.800000E-03
-1.396200E+00,+0.000000E+00,+9.600000E-03
-1.396000E+00,+0.000000E+00,+9.600000E-03
-1.395800E+00,+0.000000E+00,+9.600000E-03
-1.395600E+00,+0.000000E+00,+9.600000E-03
-1.395400E+00,+8.000000E-03,+9.600000E-03
-1.395200E+00,+0.000000E+00,+9.600000E-03
-1.395000E+00,+0.000000E+00,+9.600000E-03
-1.394800E+00,+8.000000E-03,+9.600000E-03
-1.394600E+00,+8.000000E-03,+9.600000E-03
-1.394400E+00,+8.000000E-03,+9.600000E-03
-1.394200E+00,+8.000000E-03,+9.600000E-03
-1.394000E+00,+0.000000E+00,+9.600000E-03
-1.393800E+00,+0.000000E+00,+8.800000E-03
-1.393600E+00,+8.000000E-03,+8.800000E-03
-1.393400E+00,+8.000000E-03,+9.600000E-03
-1.393200E+00,+8.000000E-03,+9.600000E-03
-1.393000E+00,+8.000000E-03,+9.600000E-03
-1.392800E+00,+8.000000E-03,+9.600000E-03
-1.392600E+00,+8.000000E-03,+9.600000E-03
-1.392400E+00,+8.000000E-03,+8.800000E-03
-1.392200E+00,+8.000000E-03,+8.800000E-03
-1.392000E+00,+8.000000E-03,+8.800000E-03
-1.391800E+00,+1.600000E-02,+8.800000E-03
-1.391600E+00,+1.600000E-02,+9.600000E-03
-1.391400E+00,+1.600000E-02,+9.600000E-03
-1.391200E+00,+8.000000E-03,+9.600000E-03
-1.391000E+00,+8.000000E-03,+9.600000E-03
-1.390800E+00,+1.600000E-02,+8.800000E-03
-1.390600E+00,+1.600000E-02,+8.800000E-03
-1.390400E+00,+1.600000E-02,+8.800000E-03
-1.390200E+00,+2.400000E-02,+8.800000E-03
-1.390000E+00,+2.400000E-02,+8.800000E-03
-1.389800E+00,+1.600000E-02,+8.800000E-03
-1.389600E+00,+1.600000E-02,+8.800000E-03
-1.389400E+00,+1.600000E-02,+8.800000E-03
-1.389200E+00,+1.600000E-02,+8.800000E-03
-1.389000E+00,+1.600000E-02,+8.800000E-03
-1.388800E+00,+1.600000E-02,+8.800000E-03
-1.388600E+00,+1.600000E-02,+8.800000E-03
-1.388400E+00,+1.600000E-02,+9.600000E-03
-1.388200E+00,+1.600000E-02,+8.800000E-03
-1.388000E+00,+2.400000E-02,+8.800000E-03
-1.387800E+00,+2.400000E-02,+8.800000E-03
-1.387600E+00,+2.400000E-02,+8.800000E-03
-1.387400E+00,+2.400000E-02,+8.800000E-03
-1.387200E+00,+2.400000E-02,+8.800000E-03
-1.387000E+00,+2.400000E-02,+8.800000E-03
-1.386800E+00,+2.400000E-02,+8.800000E-03
-1.386600E+00,+2.400000E-02,+8.800000E-03
-1.386400E+00,+2.400000E-02,+8.800000E-03
-1.386200E+00,+2.400000E-02,+8.800000E-03
-1.386000E+00,+2.400000E-02,+8.800000E-03
-1.385800E+00,+2.400000E-02,+8.800000E-03
-1.385600E+00,+2.400000E-02,+8.800000E-03
-1.385400E+00,+2.400000E-02,+8.800000E-03
-1.385200E+00,+2.400000E-02,+8.800000E-03
-1.385000E+00,+2.400000E-02,+8.800000E-03
-1.384800E+00,+2.400000E-02,+9.600000E-03
-1.384600E+00,+2.400000E-02,+9.600000E-03
-1.384400E+00,+2.400000E-02,+8.800000E-03
-1.384200E+00,+3.200000E-02,+8.800000E-03
-1.384000E+00,+2.400000E-02,+8.800000E-03
-1.383800E+00,+2.400000E-02,+8.800000E-03
-1.383600E+00,+2.400000E-02,+8.800000E-03
-1.383400E+00,+2.400000E-02,+9.600000E-03
-1.383200E+00,+3.200000E-02,+8.800000E-03
-1.383000E+00,+2.400000E-02,+8.800000E-03
-1.382800E+00,+2.400000E-02,+8.800000E-03
-1.382600E+00,+3.200000E-02,+9.600000E-03
-1.382400E+00,+3.200000E-02,+8.800000E-03
-1.382200E+00,+4.000000E-02,+8.800000E-03
-1.382000E+00,+3.200000E-02,+8.800000E-03
-1.381800E+00,+3.200000E-02,+7.999999E-03
-1.381600E+00,+3.200000E-02,+7.999999E-03
-1.381400E+00,+3.200000E-02,+7.999999E-03
-1.381200E+00,+3.200000E-02,+7.999999E-03
-1.381000E+00,+4.000000E-02,+8.800000E-03
-1.380800E+00,+4.000000E-02,+8.800000E-03
-1.380600E+00,+4.000000E-02,+8.800000E-03
-1.380400E+00,+4.000000E-02,+8.800000E-03
-1.380200E+00,+4.000000E-02,+9.600000E-03
-1.380000E+00,+3.200000E-02,+8.800000E-03
-1.379800E+00,+3.200000E-02,+7.999999E-03
-1.379600E+00,+4.000000E-02,+8.800000E-03
-1.379400E+00,+4.000000E-02,+8.800000E-03
-1.379200E+00,+4.000000E-02,+8.800000E-03
-1.379000E+00,+4.000000E-02,+7.999999E-03
-1.378800E+00,+4.000000E-02,+7.999999E-03
-1.378600E+00,+4.000000E-02,+8.800000E-03
-1.378400E+00,+4.000000E-02,+8.800000E-03
-1.378200E+00,+4.000000E-02,+8.800000E-03
-1.378000E+00,+4.800000E-02,+8.800000E-03
-1.377800E+00,+4.000000E-02,+8.800000E-03
-1.377600E+00,+4.000000E-02,+7.999999E-03
-1.377400E+00,+4.800000E-02,+7.999999E-03
-1.377200E+00,+4.800000E-02,+7.999999E-03
-1.377000E+00,+4.800000E-02,+7.999999E-03
-1.376800E+00,+4.800000E-02,+8.800000E-03
-1.376600E+00,+4.800000E-02,+8.800000E-03
-1.376400E+00,+4.800000E-02,+7.999999E-03
-1.376200E+00,+4.800000E-02,+7.999999E-03
-1.376000E+00,+4.800000E-02,+7.999999E-03
-1.375800E+00,+4.800000E-02,+8.800000E-03
-1.375600E+00,+4.800000E-02,+7.999999E-03
-1.375400E+00,+4.800000E-02,+7.999999E-03
-1.375200E+00,+4.800000E-02,+7.999999E-03
-1.375000E+00,+4.800000E-02,+7.999999E-03
-1.374800E+00,+4.800000E-02,+7.999999E-03
-1.374600E+00,+4.800000E-02,+7.999999E-03
-1.374400E+00,+4.800000E-02,+7.999999E-03
-1.374200E+00,+5.600000E-02,+7.999999E-03
-1.374000E+00,+5.600000E-02,+7.999999E-03
-1.373800E+00,+4.800000E-02,+7.999999E-03
-1.373600E+00,+4.800000E-02,+7.999999E-03
-1.373400E+00,+4.800000E-02,+7.999999E-03
-1.373200E+00,+4.800000E-02,+7.200000E-03
-1.373000E+00,+5.600000E-02,+7.200000E-03
-1.372800E+00,+5.600000E-02,+7.999999E-03
-1.372600E+00,+5.600000E-02,+8.800000E-03
-1.372400E+00,+5.600000E-02,+7.999999E-03
-1.372200E+00,+5.600000E-02,+7.999999E-03
-1.372000E+00,+5.600000E-02,+7.200000E-03
-1.371800E+00,+5.600000E-02,+7.200000E-03
-1.371600E+00,+5.600000E-02,+7.200000E-03
-1.371400E+00,+5.600000E-02,+7.200000E-03
-1.371200E+00,+5.600000E-02,+7.200000E-03
-1.371000E+00,+5.600000E-02,+7.200000E-03
-1.370800E+00,+5.600000E-02,+7.200000E-03
-1.370600E+00,+5.600000E-02,+7.200000E-03
-1.370400E+00,+6.400000E-02,+7.200000E-03
-1.370200E+00,+6.400000E-02,+7.999999E-03
-1.370000E+00,+5.600000E-02,+8.800000E-03
-1.369800E+00,+5.600000E-02,+7.999999E-03
-1.369600E+00,+5.600000E-02,+7.200000E-03
-1.369400E+00,+5.600000E-02,+7.200000E-03
-1.369200E+00,+5.600000E-02,+7.200000E-03
-1.369000E+00,+5.600000E-02,+7.200000E-03
-1.368800E+00,+6.400000E-02,+7.200000E-03
-1.368600E+00,+6.400000E-02,+7.200000E-03
-1.368400E+00,+6.400000E-02,+7.200000E-03
-1.368200E+00,+6.400000E-02,+7.200000E-03
-1.368000E+00,+6.400000E-02,+7.200000E-03
-1.367800E+00,+6.400000E-02,+7.200000E-03
-1.367600E+00,+6.400000E-02,+7.200000E-03
-1.367400E+00,+6.400000E-02,+7.200000E-03
-1.367200E+00,+6.400000E-02,+7.200000E-03
-1.367000E+00,+6.400000E-02,+7.200000E-03
-1.366800E+00,+6.400000E-02,+7.200000E-03
-1.366600E+00,+6.400000E-02,+7.200000E-03
-1.366400E+00,+6.400000E-02,+7.200000E-03
-1.366200E+00,+6.400000E-02,+7.200000E-03
-1.366000E+00,+6.400000E-02,+6.400000E-03
-1.365800E+00,+7.200000E-02,+6.400000E-03
-1.365600E+00,+6.400000E-02,+6.400000E-03
-1.365400E+00,+6.400000E-02,+6.400000E-03
-1.365200E+00,+6.400000E-02,+6.400000E-03
-1.365000E+00,+7.200000E-02,+6.400000E-03
-1.364800E+00,+7.200000E-02,+6.400000E-03
-1.364600E+00,+7.200000E-02,+6.400000E-03
-1.364400E+00,+7.200000E-02,+6.400000E-03
-1.364200E+00,+7.200000E-02,+6.400000E-03
-1.364000E+00,+7.200000E-02,+6.400000E-03
-1.363800E+00,+7.200000E-02,+6.400000E-03
-1.363600E+00,+7.200000E-02,+6.400000E-03
-1.363400E+00,+7.200000E-02,+5.600000E-03
-1.363200E+00,+7.200000E-02,+5.600000E-03
-1.363000E+00,+7.200000E-02,+6.400000E-03
-1.362800E+00,+7.200000E-02,+5.600000E-03
-1.362600E+00,+7.200000E-02,+5.600000E-03
-1.362400E+00,+7.200000E-02,+6.400000E-03
-1.362200E+00,+7.200000E-02,+5.600000E-03
-1.362000E+00,+8.000001E-02,+5.600000E-03
-1.361800E+00,+8.000001E-02,+5.600000E-03
-1.361600E+00,+7.200000E-02,+5.600000E-03
-1.361400E+00,+7.200000E-02,+5.600000E-03
-1.361200E+00,+8.000001E-02,+5.600000E-03
-1.361000E+00,+7.200000E-02,+5.600000E-03
-1.360800E+00,+8.000001E-02,+5.600000E-03
-1.360600E+00,+8.000001E-02,+5.600000E-03
-1.360400E+00,+7.200000E-02,+5.600000E-03
-1.360200E+00,+8.000001E-02,+5.600000E-03
-1.360000E+00,+8.000001E-02,+5.600000E-03
-1.359800E+00,+8.000001E-02,+5.600000E-03
-1.359600E+00,+8.000001E-02,+5.600000E-03
-1.359400E+00,+7.200000E-02,+5.600000E-03
-1.359200E+00,+8.000001E-02,+5.600000E-03
-1.359000E+00,+8.000001E-02,+5.600000E-03
-1.358800E+00,+8.000001E-02,+5.600000E-03
-1.358600E+00,+8.000001E-02,+5.600000E-03
-1.358400E+00,+8.000001E-02,+5.600000E-03
-1.358200E+00,+8.000001E-02,+4.800000E-03
-1.358000E+00,+8.000001E-02,+4.800000E-03
-1.357800E+00,+8.800001E-02,+4.800000E-03
-1.357600E+00,+8.000001E-02,+4.800000E-03
-1.357400E+00,+8.000001E-02,+4.800000E-03
-1.357200E+00,+8.800001E-02,+4.800000E-03
-1.357000E+00,+8.800001E-02,+4.800000E-03
-1.356800E+00,+8.800001E-02,+4.800000E-03
-1.356600E+00,+8.800001E-02,+4.800000E-03
-1.356400E+00,+8.800001E-02,+4.800000E-03
-1.356200E+00,+8.800001E-02,+4.800000E-03
-1.356000E+00,+8.000001E-02,+4.800000E-03
-1.355800E+00,+8.000001E-02,+4.800000E-03
-1.355600E+00,+8.800001E-02,+4.800000E-03
-1.355400E+00,+8.800001E-02,+4.800000E-03
-1.355200E+00,+8.800001E-02,+4.800000E-03
-1.355000E+00,+8.800001E-02,+4.800000E-03
-1.354800E+00,+8.800001E-02,+4.800000E-03
-1.354600E+00,+8.800001E-02,+4.800000E-03
-1.354400E+00,+8.800001E-02,+4.800000E-03
-1.354200E+00,+8.800001E-02,+4.000000E-03
-1.354000E+00,+8.800001E-02,+4.000000E-03
-1.353800E+00,+8.800001E-02,+4.800000E-03
-1.353600E+00,+8.800001E-02,+4.800000E-03
-1.353400E+00,+8.800001E-02,+4.000000E-03
-1.353200E+00,+8.800001E-02,+4.000000E-03
-1.353000E+00,+8.800001E-02,+4.000000E-03
-1.352800E+00,+8.800001E-02,+4.000000E-03
-1.352600E+00,+8.800001E-02,+4.000000E-03
-1.352400E+00,+8.800001E-02,+4.000000E-03
-1.352200E+00,+8.800001E-02,+4.000000E-03
-1.352000E+00,+8.800001E-02,+4.000000E-03
-1.351800E+00,+8.800001E-02,+4.000000E-03
-1.351600E+00,+8.800001E-02,+4.000000E-03
-1.351400E+00,+8.800001E-02,+4.000000E-03
-1.351200E+00,+9.600000E-02,+4.000000E-03
-1.351000E+00,+9.600000E-02,+4.000000E-03
-1.350800E+00,+8.800001E-02,+4.800000E-03
-1.350600E+00,+8.800001E-02,+4.000000E-03
-1.350400E+00,+8.800001E-02,+4.000000E-03
-1.350200E+00,+9.600000E-02,+4.000000E-03
-1.350000E+00,+9.600000E-02,+4.000000E-03
-1.349800E+00,+9.600000E-02,+3.200000E-03
-1.349600E+00,+9.600000E-02,+3.200000E-03
-1.349400E+00,+8.800001E-02,+3.200000E-03
-1.349200E+00,+8.800001E-02,+4.000000E-03
-1.349000E+00,+9.600000E-02,+3.200000E-03
-1.348800E+00,+9.600000E-02,+3.200000E-03
-1.348600E+00,+8.800001E-02,+3.200000E-03
-1.348400E+00,+8.800001E-02,+3.200000E-03
-1.348200E+00,+9.600000E-02,+3.200000E-03
-1.348000E+00,+9.600000E-02,+3.200000E-03
-1.347800E+00,+8.800001E-02,+3.200000E-03
-1.347600E+00,+9.600000E-02,+3.200000E-03
-1.347400E+00,+1.040000E-01,+3.200000E-03
-1.347200E+00,+9.600000E-02,+3.200000E-03
-1.347000E+00,+9.600000E-02,+3.200000E-03
-1.346800E+00,+9.600000E-02,+3.200000E-03
-1.346600E+00,+9.600000E-02,+3.200000E-03
-1.346400E+00,+9.600000E-02,+2.400000E-03
-1.346200E+00,+9.600000E-02,+3.200000E-03
-1.346000E+00,+9.600000E-02,+3.200000E-03
-1.345800E+00,+9.600000E-02,+2.400000E-03
-1.345600E+00,+9.600000E-02,+2.400000E-03
-1.345400E+00,+9.600000E-02,+2.400000E-03
-1.345200E+00,+9.600000E-02,+2.400000E-03
-1.345000E+00,+9.600000E-02,+2.400000E-03
-1.344800E+00,+9.600000E-02,+2.400000E-03
-1.344600E+00,+1.040000E-01,+2.400000E-03
-1.344400E+00,+9.600000E-02,+2.400000E-03
-1.344200E+00,+9.600000E-02,+2.400000E-03
-1.344000E+00,+1.040000E-01,+1.600000E-03
-1.343800E+00,+9.600000E-02,+1.600000E-03
-1.343600E+00,+9.600000E-02,+2.400000E-03
-1.343400E+00,+1.040000E-01,+2.400000E-03
-1.343200E+00,+1.040000E-01,+1.600000E-03
-1.343000E+00,+9.600000E-02,+1.600000E-03
-1.342800E+00,+9.600000E-02,+2.400000E-03
-1.342600E+00,+1.040000E-01,+2.400000E-03
-1.342400E+00,+1.040000E-01,+2.400000E-03
-1.342200E+00,+1.040000E-01,+1.600000E-03
-1.342000E+00,+1.040000E-01,+1.600000E-03
-1.341800E+00,+1.040000E-01,+1.600000E-03
-1.341600E+00,+1.040000E-01,+1.600000E-03
-1.341400E+00,+1.040000E-01,+1.600000E-03
-1.341200E+00,+1.040000E-01,+1.600000E-03
-1.341000E+00,+1.040000E-01,+1.600000E-03
-1.340800E+00,+1.040000E-01,+1.600000E-03
-1.340600E+00,+1.040000E-01,+1.600000E-03
-1.340400E+00,+1.040000E-01,+1.600000E-03
-1.340200E+00,+1.040000E-01,+1.600000E-03
-1.340000E+00,+1.040000E-01,+8.000000E-04
-1.339800E+00,+1.040000E-01,+8.000000E-04
-1.339600E+00,+1.040000E-01,+8.000000E-04
-1.339400E+00,+1.040000E-01,+8.000000E-04
-1.339200E+00,+1.040000E-01,+8.000000E-04
-1.339000E+00,+1.040000E-01,+8.000000E-04
-1.338800E+00,+1.040000E-01,+1.600000E-03
-1.338600E+00,+1.120000E-01,+1.600000E-03
-1.338400E+00,+1.120000E-01,+8.000000E-04
-1.338200E+00,+1.040000E-01,+8.000000E-04
-1.338000E+00,+1.040000E-01,+8.000000E-04
-1.337800E+00,+1.040000E-01,+8.000000E-04
-1.337600E+00,+1.040000E-01,+8.000000E-04
-1.337400E+00,+1.040000E-01,+0.000000E+00
-1.337200E+00,+1.040000E-01,+8.000000E-04
-1.337000E+00,+1.040000E-01,+8.000000E-04
-1.336800E+00,+1.040000E-01,+0.000000E+00
-1.336600E+00,+1.040000E-01,+8.000000E-04
-1.336400E+00,+1.120000E-01,+0.000000E+00
-1.336200E+00,+1.120000E-01,+0.000000E+00
-1.336000E+00,+1.120000E-01,+0.000000E+00
-1.335800E+00,+1.120000E-01,+0.000000E+00
-1.335600E+00,+1.120000E-01,+0.000000E+00
-1.335400E+00,+1.120000E-01,+0.000000E+00
-1.335200E+00,+1.120000E-01,+0.000000E+00
-1.335000E+00,+1.120000E-01,+0.000000E+00
-1.334800E+00,+1.120000E-01,+0.000000E+00
-1.334600E+00,+1.120000E-01,+0.000000E+00
-1.334400E+00,+1.120000E-01,+0.000000E+00
-1.334200E+00,+1.120000E-01,+0.000000E+00
-1.334000E+00,+1.120000E-01,+0.000000E+00
-1.333800E+00,+1.120000E-01,+0.000000E+00
-1.333600E+00,+1.120000E-01,+0.000000E+00
-1.333400E+00,+1.120000E-01,+0.000000E+00
-1.333200E+00,+1.120000E-01,+0.000000E+00
-1.333000E+00,+1.120000E-01,+0.000000E+00
-1.332800E+00,+1.120000E-01,-8.000000E-04
-1.332600E+00,+1.120000E-01,-8.000000E-04
-1.332400E+00,+1.120000E-01,+0.000000E+00
-1.332200E+00,+1.200000E-01,+0.000000E+00
-1.332000E+00,+1.120000E-01,-8.000000E-04
-1.331800E+00,+1.120000E-01,-8.000000E-04
-1.331600E+00,+1.120000E-01,-8.000000E-04
-1.331400E+00,+1.120000E-01,-8.000000E-04
-1.331200E+00,+1.120000E-01,-8.000000E-04
-1.331000E+00,+1.120000E-01,-8.000000E-04
-1.330800E+00,+1.120000E-01,+0.000000E+00
-1.330600E+00,+1.120000E-01,-8.000000E-04
-1.330400E+00,+1.120000E-01,-8.000000E-04
-1.330200E+00,+1.120000E-01,-8.000000E-04
-1.330000E+00,+1.120000E-01,-1.600000E-03
-1.329800E+00,+1.120000E-01,-1.600000E-03
-1.329600E+00,+1.120000E-01,-8.000000E-04
-1.329400E+00,+1.120000E-01,-1.600000E-03
-1.329200E+00,+1.120000E-01,-1.600000E-03
-1.329000E+00,+1.120000E-01,-1.600000E-03
-1.328800E+00,+1.120000E-01,-1.600000E-03
-1.328600E+00,+1.200000E-01,-1.600000E-03
-1.328400E+00,+1.200000E-01,-8.000000E-04
-1.328200E+00,+1.200000E-01,-1.600000E-03
-1.328000E+00,+1.120000E-01,-1.600000E-03
-1.327800E+00,+1.120000E-01,-1.600000E-03
-1.327600E+00,+1.120000E-01,-1.600000E-03
-1.327400E+00,+1.120000E-01,-1.600000E-03
-1.327200E+00,+1.120000E-01,-1.600000E-03
-1.327000E+00,+1.120000E-01,-1.600000E-03
-1.326800E+00,+1.120000E-01,-1.600000E-03
-1.326600E+00,+1.120000E-01,-1.600000E-03
-1.326400E+00,+1.120000E-01,-1.600000E-03
-1.326200E+00,+1.120000E-01,-1.600000E-03
-1.326000E+00,+1.200000E-01,-2.400000E-03
-1.325800E+00,+1.120000E-01,-2.400000E-03
-1.325600E+00,+1.120000E-01,-2.400000E-03
-1.325400E+00,+1.120000E-01,-2.400000E-03
-1.325200E+00,+1.120000E-01,-2.400000E-03
-1.325000E+00,+1.120000E-01,-2.400000E-03
-1.324800E+00,+1.120000E-01,-2.400000E-03
-1.324600E+00,+1.120000E-01,-2.400000E-03
-1.324400E+00,+1.120000E-01,-2.400000E-03
-1.324200E+00,+1.200000E-01,-2.400000E-03
-1.324000E+00,+1.200000E-01,-2.400000E-03
-1.323800E+00,+1.120000E-01,-2.400000E-03
-1.323600E+00,+1.200000E-01,-2.400000E-03
-1.323400E+00,+1.120000E-01,-2.400000E-03
-1.323200E+00,+1.120000E-01,-3.200000E-03
-1.323000E+00,+1.120000E-01,-3.200000E-03
-1.322800E+00,+1.120000E-01,-3.200000E-03
-1.322600E+00,+1.120000E-01,-3.200000E-03
-1.322400E+00,+1.120000E-01,-3.200000E-03
-1.322200E+00,+1.120000E-01,-3.200000E-03
-1.322000E+00,+1.120000E-01,-3.200000E-03
-1.321800E+00,+1.200000E-01,-3.200000E-03
-1.321600E+00,+1.200000E-01,-3.200000E-03
-1.321400E+00,+1.200000E-01,-3.200000E-03
-1.321200E+00,+1.200000E-01,-4.000000E-03
-1.321000E+00,+1.120000E-01,-4.000000E-03
-1.320800E+00,+1.120000E-01,-4.000000E-03
-1.320600E+00,+1.200000E-01,-4.000000E-03
-1.320400E+00,+1.120000E-01,-4.000000E-03
-1.320200E+00,+1.120000E-01,-4.000000E-03
-1.320000E+00,+1.120000E-01,-4.000000E-03
-1.319800E+00,+1.120000E-01,-4.000000E-03
-1.319600E+00,+1.120000E-01,-4.000000E-03
-1.319400E+00,+1.120000E-01,-3.200000E-03
-1.319200E+00,+1.120000E-01,-4.000000E-03
-1.319000E+00,+1.120000E-01,-4.800000E-03
-1.318800E+00,+1.120000E-01,-4.000000E-03
-1.318600E+00,+1.120000E-01,-4.000000E-03
-1.318400E+00,+1.120000E-01,-4.000000E-03
-1.318200E+00,+1.120000E-01,-4.800000E-03
-1.318000E+00,+1.200000E-01,-4.800000E-03
-1.317800E+00,+1.200000E-01,-4.000000E-03
-1.317600E+00,+1.120000E-01,-4.000000E-03
-1.317400E+00,+1.120000E-01,-4.000000E-03
-1.317200E+00,+1.200000E-01,-4.000000E-03
-1.317000E+00,+1.120000E-01,-4.800000E-03
-1.316800E+00,+1.120000E-01,-4.800000E-03
-1.316600E+00,+1.120000E-01,-4.800000E-03
-1.316400E+00,+1.120000E-01,-4.800000E-03
-1.316200E+00,+1.120000E-01,-4.800000E-03
-1.316000E+00,+1.120000E-01,-4.800000E-03
-1.315800E+00,+1.120000E-01,-4.800000E-03
-1.315600E+00,+1.120000E-01,-4.800000E-03
-1.315400E+00,+1.120000E-01,-4.800000E-03
-1.315200E+00,+1.120000E-01,-5.600000E-03
-1.315000E+00,+1.120000E-01,-5.600000E-03
-1.314800E+00,+1.120000E-01,-4.800000E-03
-1.314600E+00,+1.120000E-01,-4.800000E-03
-1.314400E+00,+1.120000E-01,-4.800000E-03
-1.314200E+00,+1.120000E-01,-4.800000E-03
-1.314000E+00,+1.120000E-01,-5.600000E-03
-1.313800E+00,+1.120000E-01,-5.600000E-03
-1.313600E+00,+1.120000E-01,-4.800000E-03
-1.313400E+00,+1.120000E-01,-4.800000E-03
-1.313200E+00,+1.040000E-01,-5.600000E-03
-1.313000E+00,+1.040000E-01,-5.600000E-03
-1.312800E+00,+1.040000E-01,-5.600000E-03
-1.312600E+00,+1.040000E-01,-5.600000E-03
-1.312400E+00,+1.040000E-01,-5.600000E-03
-1.312200E+00,+1.120000E-01,-5.600000E-03
-1.312000E+00,+1.040000E-01,-5.600000E-03
-1.311800E+00,+1.040000E-01,-5.600000E-03
-1.311600E+00,+1.040000E-01,-6.400000E-03
-1.311400E+00,+1.040000E-01,-6.400000E-03
-1.311200E+00,+1.040000E-01,-5.600000E-03
-1.311000E+00,+1.040000E-01,-6.400000E-03
-1.310800E+00,+1.040000E-01,-6.400000E-03
-1.310600E+00,+1.120000E-01,-5.600000E-03
-1.310400E+00,+1.120000E-01,-5.600000E-03
-1.310200E+00,+1.040000E-01,-6.400000E-03
-1.310000E+00,+1.040000E-01,-6.400000E-03
-1.309800E+00,+1.040000E-01,-6.400000E-03
-1.309600E+00,+1.040000E-01,-6.400000E-03
-1.309400E+00,+1.040000E-01,-6.400000E-03
-1.309200E+00,+1.040000E-01,-6.400000E-03
-1.309000E+00,+1.040000E-01,-6.400000E-03
-1.308800E+00,+1.040000E-01,-6.400000E-03
-1.308600E+00,+1.040000E-01,-6.400000E-03
-1.308400E+00,+9.600000E-02,-6.400000E-03
-1.308200E+00,+9.600000E-02,-6.400000E-03
-1.308000E+00,+9.600000E-02,-6.400000E-03
-1.307800E+00,+9.600000E-02,-6.400000E-03
-1.307600E+00,+9.600000E-02,-6.400000E-03
-1.307400E+00,+9.600000E-02,-6.400000E-03
-1.307200E+00,+9.600000E-02,-6.400000E-03
-1.307000E+00,+9.600000E-02,-7.200000E-03
